<svg width="32" height="32" viewBox="0 0 32 32"  xmlns="http://www.w3.org/2000/svg">
<rect width="32" height="32" rx="16" />
<g clip-path="url(#clip0)">
<path d="M18.6648 10.6567H20.1254V8.11267C19.8734 8.078 19.0068 8 17.9974 8C15.8914 8 14.4488 9.32467 14.4488 11.7593V14H12.1248V16.844H14.4488V24H17.2981V16.8447H19.5281L19.8821 14.0007H17.2974V12.0413C17.2981 11.2193 17.5194 10.6567 18.6648 10.6567Z" fill="white"/>
</g>
<defs>
<clipPath id="clip0">
<rect width="16" height="16" fill="white" transform="translate(8 8)"/>
</clipPath>
</defs>
</svg>
