<svg width="48" height="48" viewBox="0 0 48 48" fill="none" xmlns="http://www.w3.org/2000/svg">
<path d="M24.9081 46.7026C23.1914 46.709 21.4869 46.4124 19.8733 45.8263C14.0887 43.7058 10.2299 40.3666 8.40521 35.9019C5.41039 28.5722 8.96629 20.9337 9.11872 20.6126C9.1754 20.4932 9.26725 20.3939 9.38195 20.3281C9.49666 20.2622 9.62874 20.2331 9.76049 20.2444C9.89224 20.2558 10.0174 20.3071 10.1191 20.3916C10.2209 20.4761 10.2944 20.5897 10.3297 20.7171C10.8513 22.1995 11.7715 23.5093 12.9892 24.5026C14.474 17.0509 20.9741 12.5415 21.2627 12.3437C25.4569 8.98627 22.0314 2.31557 21.9963 2.24875C21.9272 2.11657 21.9057 1.96459 21.9355 1.81842C21.9654 1.67225 22.0447 1.54083 22.1601 1.4463C22.2755 1.35176 22.4199 1.2999 22.5691 1.29944C22.7183 1.29898 22.8631 1.34996 22.979 1.44378C34.5295 10.8168 33.8653 20.2572 32.9332 24.1361C33.8008 23.4569 34.4748 22.5617 34.8878 21.5401C35.3008 20.5186 35.4383 19.4065 35.2865 18.3151C35.2662 18.17 35.2956 18.0223 35.3699 17.8961C35.4442 17.7698 35.5591 17.6724 35.6958 17.6198C35.8325 17.5671 35.9831 17.5623 36.1229 17.6061C36.2627 17.65 36.3835 17.7398 36.4657 17.8611C37.7193 19.8147 38.737 21.91 39.4975 24.103C40.5007 26.9754 40.7477 30.0577 40.2147 33.0532C39.6816 36.0487 38.3866 38.8566 36.4541 41.2066L36.3153 41.3759C34.9259 43.0518 33.1822 44.3988 31.2097 45.3199C29.2372 46.2409 27.085 46.7132 24.9081 46.7026ZM20.3196 44.6081C21.7903 45.1418 23.3436 45.4117 24.9081 45.4053C26.8933 45.4152 28.856 44.985 30.655 44.1456C32.4541 43.3062 34.0447 42.0785 35.3125 40.5508L35.4422 40.3886C37.2346 38.2105 38.4362 35.6077 38.9315 32.8307C39.4268 30.0537 39.1991 27.196 38.2703 24.5324C37.7884 23.1617 37.2057 21.8285 36.5267 20.5439C35.8132 24.4468 32.0789 26.2617 32.0335 26.2831C31.9127 26.3403 31.7771 26.3588 31.6454 26.336C31.5136 26.3132 31.3921 26.2502 31.2975 26.1557C31.203 26.0612 31.1399 25.9397 31.117 25.808C31.0941 25.6763 31.1124 25.5407 31.1695 25.4198C31.3745 24.98 35.8398 14.9765 24.0863 4.11751C24.8361 6.71665 25.2843 10.7817 22.0294 13.3854C21.9211 13.4619 15.0325 18.2542 14.0919 25.7746C14.0778 25.8846 14.0358 25.9891 13.9698 26.0782C13.9038 26.1673 13.816 26.238 13.7149 26.2836C13.6138 26.3291 13.5027 26.348 13.3923 26.3384C13.2818 26.3288 13.1756 26.291 13.0839 26.2286C11.7281 25.2673 10.5861 24.0356 9.72975 22.6111C8.87807 25.1026 7.56261 30.4215 9.6091 35.4161C11.2917 39.5253 14.8949 42.6161 20.3189 44.6049L20.3196 44.6081Z" fill="#0C74DD"/>
<path d="M22.1443 46.4381C21.9915 46.4381 21.8436 46.3841 21.7266 46.2856C13.4609 39.3178 19.2845 30.4074 19.3441 30.3185C19.4196 30.2058 19.5285 30.1196 19.6555 30.072C19.7826 30.0244 19.9213 30.0178 20.0523 30.0532C20.1832 30.0885 20.2998 30.1641 20.3856 30.2691C20.4714 30.3742 20.5221 30.5035 20.5305 30.6389C20.5469 31.6342 20.904 32.5937 21.5424 33.3574C21.206 30.9108 21.5636 28.4188 22.5745 26.1655C23.5854 23.9122 25.209 21.9882 27.2602 20.6128C27.3815 20.5422 27.5224 20.5129 27.6617 20.5292C27.8011 20.5455 27.9314 20.6065 28.0331 20.7031C28.1348 20.7997 28.2025 20.9267 28.2259 21.065C28.2494 21.2033 28.2274 21.3455 28.1632 21.4703C27.8053 22.1459 27.6254 22.9015 27.6403 23.6659C27.6739 24.5554 27.9562 25.4177 28.455 26.1548L28.7145 26.5511C29.574 27.8271 30.5053 29.0533 31.5037 30.2238C32.2808 31.1639 32.9025 32.2222 33.3452 33.3587C36.5962 40.0612 31.0101 45.3444 30.9556 45.3976C30.8289 45.5111 30.6627 45.5702 30.4929 45.5623C30.323 45.5545 30.163 45.4802 30.0474 45.3555C29.9317 45.2309 29.8696 45.0658 29.8745 44.8958C29.8794 44.7258 29.9508 44.5645 30.0734 44.4467C30.2765 44.2573 35.0194 39.7375 32.164 33.8964C32.1529 33.8735 32.1431 33.8499 32.1348 33.8257C31.7418 32.8211 31.1918 31.8851 30.5054 31.0528C29.4749 29.8446 28.514 28.5788 27.6274 27.2614L27.3679 26.8651C26.736 25.9245 26.3805 24.8256 26.3418 23.6932C26.3366 23.4404 26.3479 23.1875 26.3755 22.9362C24.5074 24.7025 21.7701 28.4627 23.0609 34.6119C23.0841 34.7222 23.0782 34.8366 23.0438 34.9439C23.0093 35.0512 22.9475 35.1477 22.8644 35.2238C22.7813 35.2999 22.6799 35.3531 22.57 35.3781C22.4601 35.4031 22.3456 35.399 22.2378 35.3663C21.6187 35.1293 21.0607 34.7565 20.6049 34.2752C20.1491 33.794 19.8072 33.2165 19.6042 32.5855C18.4535 35.2061 17.0745 40.6683 22.5614 45.2951C22.6632 45.3808 22.7362 45.4958 22.7705 45.6244C22.8047 45.753 22.7986 45.889 22.7529 46.014C22.7072 46.139 22.6242 46.2469 22.5151 46.3231C22.406 46.3993 22.2761 46.4401 22.1431 46.44L22.1443 46.4381Z" fill="#0C74DD"/>
</svg>
