<svg width="48" height="48" viewBox="0 0 48 48"  xmlns="http://www.w3.org/2000/svg">

<path d="M47.9438 37.4922C47.7767 36.9808 47.2161 36.6956 46.7047 36.8726L45.7802 37.1775V31.1489L47.3243 30.6375C47.6095 30.5391 47.8357 30.3227 47.9438 30.0277C48.0422 29.7425 48.0127 29.4278 47.8455 29.1721L29.3957 0.454961C29.1499 0.0812445 28.6876 -0.0859443 28.2549 0.0517405L0.668755 9.25696C0.265535 9.39464 0 9.76836 0 10.1912V19.3965C0 19.5932 0.0590078 19.78 0.167189 19.9374L18.5186 47.553C18.7055 47.8284 19.0103 47.9956 19.3349 47.9956C19.4431 47.9956 19.5414 47.9759 19.6496 47.9464L47.3243 38.7412C47.8357 38.5642 48.111 38.0134 47.9438 37.4922ZM18.4498 43.9044L1.96693 19.1014V13.2498L18.3711 39.0756C18.3809 39.1247 18.3908 39.1739 18.4104 39.2231C18.4203 39.2624 18.4399 39.2919 18.4498 39.3313V43.9044ZM43.8133 37.8364L20.4167 45.6156V43.6388L43.8133 35.6531V37.8364ZM43.8133 33.578L20.4167 41.5637V39.5968L43.8133 31.8176V33.578ZM45.495 29.1721L19.8266 37.7086L2.65535 10.6731L28.1467 2.16619L45.495 29.1721Z" />

</svg>
